program-1/gtkwave.vcd
$version Generated by VerilatedVcd $end
$date Thu Nov 17 20:47:27 2022
 $end
$timescale   1ps $end

 $scope module TOP $end
  $var wire  1 /! clock $end
  $var wire  1 0! reset $end
  $scope module testbench $end
   $var wire 32 1! MEM_ADDR_WIDTH [31:0] $end
   $var wire  1 /! clock $end
   $var wire 32 * cycles [31:0] $end
   $var wire 32 w dmem_addr [31:0] $end
   $var wire 32 & dmem_rdata [31:0] $end
   $var wire  1 v dmem_valid $end
   $var wire 32 y dmem_wdata [31:0] $end
   $var wire  4 x dmem_wstrb [3:0] $end
   $var wire 32 ) i [31:0] $end
   $var wire 32 u imem_addr [31:0] $end
   $var wire 32 % imem_data [31:0] $end
   $var wire 32 ' out [31:0] $end
   $var wire  1 ( out_valid $end
   $var wire  1 0! reset $end
   $var wire  1 # trap $end
   $var wire  1 z wr_in_mem_range $end
   $var wire  1 { wr_in_output $end
   $var wire 32 $ x10 [31:0] $end
   $scope module dut $end
    $var wire 32 3! NUMREGS [31:0] $end
    $var wire  7 B! OPCODE_AMO [6:0] $end
    $var wire  7 I! OPCODE_AUIPC [6:0] $end
    $var wire  7 8! OPCODE_BRANCH [6:0] $end
    $var wire  7 =! OPCODE_CUSTOM_0 [6:0] $end
    $var wire  7 >! OPCODE_CUSTOM_1 [6:0] $end
    $var wire  7 O! OPCODE_CUSTOM_2 [6:0] $end
    $var wire  7 P! OPCODE_CUSTOM_3 [6:0] $end
    $var wire  7 D! OPCODE_JAL [6:0] $end
    $var wire  7 <! OPCODE_JALR [6:0] $end
    $var wire  7 5! OPCODE_LOAD [6:0] $end
    $var wire  7 9! OPCODE_LOAD_FP [6:0] $end
    $var wire  7 J! OPCODE_LUI [6:0] $end
    $var wire  7 7! OPCODE_MADD [6:0] $end
    $var wire  7 A! OPCODE_MISC_MEM [6:0] $end
    $var wire  7 ;! OPCODE_MSUB [6:0] $end
    $var wire  7 C! OPCODE_NMADD [6:0] $end
    $var wire  7 ?! OPCODE_NMSUB [6:0] $end
    $var wire  7 F! OPCODE_OP [6:0] $end
    $var wire  7 N! OPCODE_OP_32 [6:0] $end
    $var wire  7 G! OPCODE_OP_FP [6:0] $end
    $var wire  7 E! OPCODE_OP_IMM [6:0] $end
    $var wire  7 M! OPCODE_OP_IMM_32 [6:0] $end
    $var wire  7 @! OPCODE_RESERVED_0 [6:0] $end
    $var wire  7 K! OPCODE_RESERVED_1 [6:0] $end
    $var wire  7 L! OPCODE_RESERVED_2 [6:0] $end
    $var wire  7 6! OPCODE_STORE [6:0] $end
    $var wire  7 :! OPCODE_STORE_FP [6:0] $end
    $var wire  7 H! OPCODE_SYSTEM [6:0] $end
    $var wire 32 2! RESET_ADDR [31:0] $end
    $var wire  1 -! bypass_rs1 $end
    $var wire  1 .! bypass_rs2 $end
    $var wire  1 /! clock $end
    $var wire 32 w dmem_addr [31:0] $end
    $var wire 32 & dmem_rdata [31:0] $end
    $var wire  1 v dmem_valid $end
    $var wire 32 y dmem_wdata [31:0] $end
    $var wire  4 x dmem_wstrb [3:0] $end
    $var wire  1 )! illinsn $end
    $var wire 32 u imem_addr [31:0] $end
    $var wire 32 O imem_addr_q [31:0] $end
    $var wire 32 % imem_data [31:0] $end
    $var wire 13 a imm_b [12:0] $end
    $var wire 32 k imm_b_sext [31:0] $end
    $var wire 32 e imm_b_sext_stage1 [31:0] $end
    $var wire 12 _ imm_i [11:0] $end
    $var wire 32 i imm_i_sext [31:0] $end
    $var wire 32 c imm_i_sext_stage1 [31:0] $end
    $var wire 21 b imm_j [20:0] $end
    $var wire 32 l imm_j_sext [31:0] $end
    $var wire 32 f imm_j_sext_stage1 [31:0] $end
    $var wire 12 ` imm_s [11:0] $end
    $var wire 32 j imm_s_sext [31:0] $end
    $var wire 32 d imm_s_sext_stage1 [31:0] $end
    $var wire 32 % insn [31:0] $end
    $var wire  3 U insn_funct3 [2:0] $end
    $var wire  3 \ insn_funct3_stage2 [2:0] $end
    $var wire  7 R insn_funct7 [6:0] $end
    $var wire  7 Y insn_funct7_stage2 [6:0] $end
    $var wire  7 W insn_opcode [6:0] $end
    $var wire  7 ^ insn_opcode_stage2 [6:0] $end
    $var wire  5 V insn_rd [4:0] $end
    $var wire  5 ] insn_rd_stage2 [4:0] $end
    $var wire  5 T insn_rs1 [4:0] $end
    $var wire  5 [ insn_rs1_stage2 [4:0] $end
    $var wire  5 S insn_rs2 [4:0] $end
    $var wire  5 Z insn_rs2_stage2 [4:0] $end
    $var wire 32 X insn_stage2 [31:0] $end
    $var wire  1 q kill_jmp $end
    $var wire  1 r kill_jmp_stage2 $end
    $var wire 32 #! mem_rd_addr [31:0] $end
    $var wire  1 "! mem_rd_enable $end
    $var wire  1 + mem_rd_enable_q $end
    $var wire  5 %! mem_rd_func [4:0] $end
    $var wire  5 - mem_rd_func_q [4:0] $end
    $var wire  5 $! mem_rd_reg [4:0] $end
    $var wire  5 , mem_rd_reg_q [4:0] $end
    $var wire 32 t mem_rdata [31:0] $end
    $var wire 32 } mem_wr_addr [31:0] $end
    $var wire 32 ~ mem_wr_data [31:0] $end
    $var wire  1 | mem_wr_enable $end
    $var wire  4 !! mem_wr_strb [3:0] $end
    $var wire 32 n next_rd [31:0] $end
    $var wire  1 (! next_wr_bypass $end
    $var wire  1 '! next_wr_stall $end
    $var wire 32 &! npc [31:0] $end
    $var wire 32 N pc [31:0] $end
    $var wire 32 4! pnpc [31:0] $end
    $var wire 32 m ppc [31:0] $end
    $var wire  1 +! re1_enable $end
    $var wire  1 ,! re2_enable $end
    $var wire 32 . regfile(0) [31:0] $end
    $var wire 32 / regfile(1) [31:0] $end
    $var wire 32 8 regfile(10) [31:0] $end
    $var wire 32 9 regfile(11) [31:0] $end
    $var wire 32 : regfile(12) [31:0] $end
    $var wire 32 ; regfile(13) [31:0] $end
    $var wire 32 < regfile(14) [31:0] $end
    $var wire 32 = regfile(15) [31:0] $end
    $var wire 32 > regfile(16) [31:0] $end
    $var wire 32 ? regfile(17) [31:0] $end
    $var wire 32 @ regfile(18) [31:0] $end
    $var wire 32 A regfile(19) [31:0] $end
    $var wire 32 0 regfile(2) [31:0] $end
    $var wire 32 B regfile(20) [31:0] $end
    $var wire 32 C regfile(21) [31:0] $end
    $var wire 32 D regfile(22) [31:0] $end
    $var wire 32 E regfile(23) [31:0] $end
    $var wire 32 F regfile(24) [31:0] $end
    $var wire 32 G regfile(25) [31:0] $end
    $var wire 32 H regfile(26) [31:0] $end
    $var wire 32 I regfile(27) [31:0] $end
    $var wire 32 J regfile(28) [31:0] $end
    $var wire 32 K regfile(29) [31:0] $end
    $var wire 32 1 regfile(3) [31:0] $end
    $var wire 32 L regfile(30) [31:0] $end
    $var wire 32 M regfile(31) [31:0] $end
    $var wire 32 2 regfile(4) [31:0] $end
    $var wire 32 3 regfile(5) [31:0] $end
    $var wire 32 4 regfile(6) [31:0] $end
    $var wire 32 5 regfile(7) [31:0] $end
    $var wire 32 6 regfile(8) [31:0] $end
    $var wire 32 7 regfile(9) [31:0] $end
    $var wire  1 0! reset $end
    $var wire  1 s reset_q $end
    $var wire 32 g rs1_value [31:0] $end
    $var wire 32 P rs1_value_stage1 [31:0] $end
    $var wire 32 h rs2_value [31:0] $end
    $var wire 32 Q rs2_value_stage1 [31:0] $end
    $var wire  1 *! stall $end
    $var wire  1 p stall_stage2 $end
    $var wire  1 # trap $end
    $var wire  1 # trapped $end
    $var wire  1 o trapped_q $end
    $var wire 32 $ x10 [31:0] $end
   $upscope $end
  $upscope $end
 $upscope $end
$enddefinitions $end


#5
0#
b00000000000000000000000000000000 $
b00000000000000000000000000000000 %
b00000000000000000000000000000000 &
b00000000000000000000000000000000 '
0(
b00000000000000000000000000000000 )
b00000000000000000000000000000000 *
0+
b00000 ,
b00000 -
b00000000000000000000000000000000 .
b00000000000000000000000000000000 /
b00000000000000000000000000000000 0
b00000000000000000000000000000000 1
b00000000000000000000000000000000 2
b00000000000000000000000000000000 3
b00000000000000000000000000000000 4
b00000000000000000000000000000000 5
b00000000000000000000000000000000 6
b00000000000000000000000000000000 7
b00000000000000000000000000000000 8
b00000000000000000000000000000000 9
b00000000000000000000000000000000 :
b00000000000000000000000000000000 ;
b00000000000000000000000000000000 <
b00000000000000000000000000000000 =
b00000000000000000000000000000000 >
b00000000000000000000000000000000 ?
b00000000000000000000000000000000 @
b00000000000000000000000000000000 A
b00000000000000000000000000000000 B
b00000000000000000000000000000000 C
b00000000000000000000000000000000 D
b00000000000000000000000000000000 E
b00000000000000000000000000000000 F
b00000000000000000000000000000000 G
b00000000000000000000000000000000 H
b00000000000000000000000000000000 I
b00000000000000000000000000000000 J
b00000000000000000000000000000000 K
b00000000000000000000000000000000 L
b00000000000000000000000000000000 M
b00000000000000000000000000000000 N
b00000000000000000000000000000000 O
b00000000000000000000000000000000 P
b00000000000000000000000000000000 Q
b0000000 R
b00000 S
b00000 T
b000 U
b00000 V
b0000000 W
b00000000000000000000000000000000 X
b0000000 Y
b00000 Z
b00000 [
b000 \
b00000 ]
b0000000 ^
b000000000000 _
b000000000000 `
b0000000000000 a
b000000000000000000000 b
b00000000000000000000000000000000 c
b00000000000000000000000000000000 d
b00000000000000000000000000000000 e
b00000000000000000000000000000000 f
b00000000000000000000000000000000 g
b00000000000000000000000000000000 h
b00000000000000000000000000000000 i
b00000000000000000000000000000000 j
b00000000000000000000000000000000 k
b00000000000000000000000000000000 l
b00000000000000000000000000000000 m
b00000000000000000000000000000000 n
0o
0p
0q
0r
0s
b00000000000000000000000000000000 t
b00000000000000000000000000000100 u
0v
b00000000000000000000000000000000 w
b0000 x
b00000000000000000000000000000000 y
1z
0{
0|
b00000000000000000000000000000000 }
b00000000000000000000000000000000 ~
b0000 !!
0"!
b00000000000000000000000000000000 #!
b00000 $!
b00000 %!
b00000000000000000000000000000100 &!
0'!
0(!
1)!
0*!
0+!
0,!
0-!
0.!
0/!
00!
b00000000000000000000000000010000 1!
b00000000000000000000000000000000 2!
b00000000000000000000000000100000 3!
b00000000000000000000000000000000 4!
b0000011 5!
b0100011 6!
b1000011 7!
b1100011 8!
b0000111 9!
b0100111 :!
b1000111 ;!
b1100111 <!
b0001011 =!
b0101011 >!
b1001011 ?!
b1101011 @!
b0001111 A!
b0101111 B!
b1001111 C!
b1101111 D!
b0010011 E!
b0110011 F!
b1010011 G!
b1110011 H!
b0010111 I!
b0110111 J!
b1010111 K!
b1110111 L!
b0011011 M!
b0111011 N!
b1011011 O!
b1111011 P!
#10
#15
b00000000000000000000000000000000 u
b00000000000000000000000000000000 &!
0)!
10!
#20
#25
b00001011000000000000011110010011 %
b00000000000000000000000000000001 *
b11111111111111111111111111111100 N
b0000101 R
b10000 S
b01111 V
b0010011 W
b000010110000 _
b000010101111 `
b0100010101110 a
b000000000000010110000 b
b00000000000000000000000010110000 c
b00000000000000000000000010101111 d
b00000000000000000000100010101110 e
b00000000000000000000000010110000 f
1s
1+!
1/!
#30
#35
0/!
#40
#45
b00000000000000000000000000000010 *
b00001011000000000000011110010011 X
b0000101 Y
b10000 Z
b01111 ]
b0010011 ^
b00000000000000000000000010110000 i
b00000000000000000000000010101111 j
b00000000000000000000100010101110 k
b00000000000000000000000010110000 l
b11111111111111111111111111111100 m
b00000000000000000000000010110000 n
1/!
#50
#55
0/!
#60
#65
b00000000000000000000000000000011 *
1/!
#70
#75
0/!
#80
#85
b00000000000000000000000000000100 *
1/!
#90
#95
0/!
00!
#100
#105
b00000000000000000000000000000101 *
b00000000000000000000000000000000 N
0s
b00000000000000000000000000000100 u
b00000000000000000000000000000100 &!
1(!
1/!
#110
#115
0/!
#120
#125
b00000001010001111000011100010011 %
b00000000000000000000000000000110 *
b00000000000000000000000010110000 =
b00000000000000000000000000000100 N
b00000000000000000000000000000100 O
b00000000000000000000000010110000 P
b0000000 R
b10100 S
b01111 T
b01110 V
b000000010100 _
b000000001110 `
b0000000001110 a
b001111000000000010100 b
b00000000000000000000000000010100 c
b00000000000000000000000000001110 d
b00000000000000000000000000001110 e
b00000000000001111000000000010100 f
b00000000000000000000000000000000 m
b00000000000000000000000000001000 u
b00000000000000000000000000001000 &!
1-!
1/!
#130
#135
0/!
#140
#145
b00000000000001111001000000100011 %
b00000000000000000000000000000111 *
b00000000000000000000000000001000 N
b00000000000000000000000000001000 O
b00000 S
b001 U
b00000 V
b0100011 W
b00000001010001111000011100010011 X
b0000000 Y
b10100 Z
b01111 [
b01110 ]
b000000000000 _
b000000000000 `
b0000000000000 a
b001111001000000000000 b
b00000000000000000000000000000000 c
b00000000000000000000000000000000 d
b00000000000000000000000000000000 e
b00000000000001111001000000000000 f
b00000000000000000000000010110000 g
b00000000000000000000000000010100 i
b00000000000000000000000000001110 j
b00000000000000000000000000001110 k
b00000000000001111000000000010100 l
b00000000000000000000000000000100 m
b00000000000000000000000011000100 n
b00000000000000000000000000001100 u
b00000000000000000000000000001100 &!
1,!
0-!
1/!
#150
#155
0/!
#160
#165
b00000000001001111000011110010011 %
b00000000000000000000000000001000 *
b00000000000000000000000011000100 <
b00000000000000000000000000001100 N
b00000000000000000000000000001100 O
b00010 S
b000 U
b01111 V
b0010011 W
b00000000000001111001000000100011 X
b00000 Z
b001 \
b00000 ]
b0100011 ^
b000000000010 _
b000000001111 `
b0100000001110 a
b001111000000000000010 b
b00000000000000000000000000000010 c
b00000000000000000000000000001111 d
b00000000000000000000100000001110 e
b00000000000001111000000000000010 f
b00000000000000000000000000000000 i
b00000000000000000000000000000000 j
b00000000000000000000000000000000 k
b00000000000001111001000000000000 l
b00000000000000000000000000001000 m
b00000000000000000000000000000000 n
b00000000000000000000000000010000 u
1v
b00000000000000000000000010110000 w
b0011 x
1|
b00000000000000000000000010110000 }
b0011 !!
b00000000000000000000000000010000 &!
0(!
0,!
1/!
#170
#175
0/!
#180
#185
b11111110111001111001110011100011 %
b00000000000000000000000000000100 )
b00000000000000000000000000001001 *
b00000000000000000000000000010000 N
b00000000000000000000000000010000 O
b00000000000000000000000011000100 Q
b1111111 R
b01110 S
b001 U
b11001 V
b1100011 W
b00000000001001111000011110010011 X
b00010 Z
b000 \
b01111 ]
b0010011 ^
b111111101110 _
b111111111001 `
b1111111111000 a
b101111001011111101110 b
b11111111111111111111111111101110 c
b11111111111111111111111111111001 d
b11111111111111111111111111111000 e
b11111111111101111001011111101110 f
b00000000000000000000000000000010 i
b00000000000000000000000000001111 j
b00000000000000000000100000001110 k
b00000000000001111000000000000010 l
b00000000000000000000000000001100 m
b00000000000000000000000010110010 n
b00000000000000000000000000010100 u
0v
b00000000000000000000000000000000 w
b0000 x
0|
b00000000000000000000000000000000 }
b0000 !!
b00000000000000000000000000010100 &!
1(!
1,!
1-!
1/!
#190
#195
0/!
#200
#205
b11111111111100000000011100010011 %
b00000000000000000000000000001010 *
b00000000000000000000000010110010 =
b00000000000000000000000000010100 N
b00000000000000000000000000010100 O
b00000000000000000000000000000000 P
b00000000000000000000000000000000 Q
b11111 S
b00000 T
b000 U
b01110 V
b0010011 W
b11111110111001111001110011100011 X
b1111111 Y
b01110 Z
b001 \
b11001 ]
b1100011 ^
b111111111111 _
b111111101110 `
b1011111101110 a
b100000000111111111110 b
b11111111111111111111111111111111 c
b11111111111111111111111111101110 d
b11111111111111111111011111101110 e
b11111111111100000000111111111110 f
b00000000000000000000000010110010 g
b00000000000000000000000011000100 h
b11111111111111111111111111101110 i
b11111111111111111111111111111001 j
b11111111111111111111111111111000 k
b11111111111101111001011111101110 l
b00000000000000000000000000010000 m
b00000000000000000000000000000000 n
1q
b00000000000000000000000000001000 u
b00000000000000000000000000001000 &!
0(!
0,!
0-!
1/!
#210
#215
0/!
#220
#225
b00000000000001111001000000100011 %
b00000000000000000000000000001011 *
b00000000000000000000000000001000 N
b00000000000000000000000000001000 O
b00000000000000000000000010110010 P
b0000000 R
b00000 S
b01111 T
b001 U
b00000 V
b0100011 W
b11111111111100000000011100010011 X
b11111 Z
b00000 [
b000 \
b01110 ]
b0010011 ^
b000000000000 _
b000000000000 `
b0000000000000 a
b001111001000000000000 b
b00000000000000000000000000000000 c
b00000000000000000000000000000000 d
b00000000000000000000000000000000 e
b00000000000001111001000000000000 f
b00000000000000000000000000000000 g
b00000000000000000000000000000000 h
b11111111111111111111111111111111 i
b11111111111111111111111111101110 j
b11111111111111111111011111101110 k
b11111111111100000000111111111110 l
b00000000000000000000000000010100 m
0q
1r
b00000000000000000000000000001100 u
b00000000000000000000000000001100 &!
1,!
1/!
#230
#235
0/!
#240
#245
b00000000001001111000011110010011 %
b00000000000000000000000000001100 *
b00000000000000000000000000001100 N
b00000000000000000000000000001100 O
b00010 S
b000 U
b01111 V
b0010011 W
b00000000000001111001000000100011 X
b0000000 Y
b00000 Z
b01111 [
b001 \
b00000 ]
b0100011 ^
b000000000010 _
b000000001111 `
b0100000001110 a
b001111000000000000010 b
b00000000000000000000000000000010 c
b00000000000000000000000000001111 d
b00000000000000000000100000001110 e
b00000000000001111000000000000010 f
b00000000000000000000000010110010 g
b00000000000000000000000000000000 i
b00000000000000000000000000000000 j
b00000000000000000000000000000000 k
b00000000000001111001000000000000 l
b00000000000000000000000000001000 m
0r
b00000000000000000000000000010000 u
1v
b00000000000000000000000010110000 w
b1100 x
1|
b00000000000000000000000010110000 }
b1100 !!
b00000000000000000000000000010000 &!
0,!
1/!
#250
#255
0/!
#260
#265
b11111110111001111001110011100011 %
b00000000000000000000000000001101 *
b00000000000000000000000000010000 N
b00000000000000000000000000010000 O
b00000000000000000000000011000100 Q
b1111111 R
b01110 S
b001 U
b11001 V
b1100011 W
b00000000001001111000011110010011 X
b00010 Z
b000 \
b01111 ]
b0010011 ^
b111111101110 _
b111111111001 `
b1111111111000 a
b101111001011111101110 b
b11111111111111111111111111101110 c
b11111111111111111111111111111001 d
b11111111111111111111111111111000 e
b11111111111101111001011111101110 f
b00000000000000000000000000000010 i
b00000000000000000000000000001111 j
b00000000000000000000100000001110 k
b00000000000001111000000000000010 l
b00000000000000000000000000001100 m
b00000000000000000000000010110100 n
b00000000000000000000000000010100 u
0v
b00000000000000000000000000000000 w
b0000 x
0|
b00000000000000000000000000000000 }
b0000 !!
b00000000000000000000000000010100 &!
1(!
1,!
1-!
1/!
#270
#275
0/!
#280
#285
b11111111111100000000011100010011 %
b00000000000000000000000000001110 *
b00000000000000000000000010110100 =
b00000000000000000000000000010100 N
b00000000000000000000000000010100 O
b00000000000000000000000000000000 P
b00000000000000000000000000000000 Q
b11111 S
b00000 T
b000 U
b01110 V
b0010011 W
b11111110111001111001110011100011 X
b1111111 Y
b01110 Z
b001 \
b11001 ]
b1100011 ^
b111111111111 _
b111111101110 `
b1011111101110 a
b100000000111111111110 b
b11111111111111111111111111111111 c
b11111111111111111111111111101110 d
b11111111111111111111011111101110 e
b11111111111100000000111111111110 f
b00000000000000000000000010110100 g
b00000000000000000000000011000100 h
b11111111111111111111111111101110 i
b11111111111111111111111111111001 j
b11111111111111111111111111111000 k
b11111111111101111001011111101110 l
b00000000000000000000000000010000 m
b00000000000000000000000000000000 n
1q
b00000000000000000000000000001000 u
b00000000000000000000000000001000 &!
0(!
0,!
0-!
1/!
#290
#295
0/!
#300
#305
b00000000000001111001000000100011 %
b00000000000000000000000000001111 *
b00000000000000000000000000001000 N
b00000000000000000000000000001000 O
b00000000000000000000000010110100 P
b0000000 R
b00000 S
b01111 T
b001 U
b00000 V
b0100011 W
b11111111111100000000011100010011 X
b11111 Z
b00000 [
b000 \
b01110 ]
b0010011 ^
b000000000000 _
b000000000000 `
b0000000000000 a
b001111001000000000000 b
b00000000000000000000000000000000 c
b00000000000000000000000000000000 d
b00000000000000000000000000000000 e
b00000000000001111001000000000000 f
b00000000000000000000000000000000 g
b00000000000000000000000000000000 h
b11111111111111111111111111111111 i
b11111111111111111111111111101110 j
b11111111111111111111011111101110 k
b11111111111100000000111111111110 l
b00000000000000000000000000010100 m
0q
1r
b00000000000000000000000000001100 u
b00000000000000000000000000001100 &!
1,!
1/!
#310
#315
0/!
#320
#325
b00000000001001111000011110010011 %
b00000000000000000000000000010000 *
b00000000000000000000000000001100 N
b00000000000000000000000000001100 O
b00010 S
b000 U
b01111 V
b0010011 W
b00000000000001111001000000100011 X
b0000000 Y
b00000 Z
b01111 [
b001 \
b00000 ]
b0100011 ^
b000000000010 _
b000000001111 `
b0100000001110 a
b001111000000000000010 b
b00000000000000000000000000000010 c
b00000000000000000000000000001111 d
b00000000000000000000100000001110 e
b00000000000001111000000000000010 f
b00000000000000000000000010110100 g
b00000000000000000000000000000000 i
b00000000000000000000000000000000 j
b00000000000000000000000000000000 k
b00000000000001111001000000000000 l
b00000000000000000000000000001000 m
0r
b00000000000000000000000000010000 u
1v
b00000000000000000000000010110100 w
b0011 x
1|
b00000000000000000000000010110100 }
b0011 !!
b00000000000000000000000000010000 &!
0,!
1/!
#330
#335
0/!
#340
#345
b11111110111001111001110011100011 %
b00000000000000000000000000010001 *
b00000000000000000000000000010000 N
b00000000000000000000000000010000 O
b00000000000000000000000011000100 Q
b1111111 R
b01110 S
b001 U
b11001 V
b1100011 W
b00000000001001111000011110010011 X
b00010 Z
b000 \
b01111 ]
b0010011 ^
b111111101110 _
b111111111001 `
b1111111111000 a
b101111001011111101110 b
b11111111111111111111111111101110 c
b11111111111111111111111111111001 d
b11111111111111111111111111111000 e
b11111111111101111001011111101110 f
b00000000000000000000000000000010 i
b00000000000000000000000000001111 j
b00000000000000000000100000001110 k
b00000000000001111000000000000010 l
b00000000000000000000000000001100 m
b00000000000000000000000010110110 n
b00000000000000000000000000010100 u
0v
b00000000000000000000000000000000 w
b0000 x
0|
b00000000000000000000000000000000 }
b0000 !!
b00000000000000000000000000010100 &!
1(!
1,!
1-!
1/!
#350
#355
0/!
#360
#365
b11111111111100000000011100010011 %
b00000000000000000000000000010010 *
b00000000000000000000000010110110 =
b00000000000000000000000000010100 N
b00000000000000000000000000010100 O
b00000000000000000000000000000000 P
b00000000000000000000000000000000 Q
b11111 S
b00000 T
b000 U
b01110 V
b0010011 W
b11111110111001111001110011100011 X
b1111111 Y
b01110 Z
b001 \
b11001 ]
b1100011 ^
b111111111111 _
b111111101110 `
b1011111101110 a
b100000000111111111110 b
b11111111111111111111111111111111 c
b11111111111111111111111111101110 d
b11111111111111111111011111101110 e
b11111111111100000000111111111110 f
b00000000000000000000000010110110 g
b00000000000000000000000011000100 h
b11111111111111111111111111101110 i
b11111111111111111111111111111001 j
b11111111111111111111111111111000 k
b11111111111101111001011111101110 l
b00000000000000000000000000010000 m
b00000000000000000000000000000000 n
1q
b00000000000000000000000000001000 u
b00000000000000000000000000001000 &!
0(!
0,!
0-!
1/!
#370
#375
0/!
#380
#385
b00000000000001111001000000100011 %
b00000000000000000000000000010011 *
b00000000000000000000000000001000 N
b00000000000000000000000000001000 O
b00000000000000000000000010110110 P
b0000000 R
b00000 S
b01111 T
b001 U
b00000 V
b0100011 W
b11111111111100000000011100010011 X
b11111 Z
b00000 [
b000 \
b01110 ]
b0010011 ^
b000000000000 _
b000000000000 `
b0000000000000 a
b001111001000000000000 b
b00000000000000000000000000000000 c
b00000000000000000000000000000000 d
b00000000000000000000000000000000 e
b00000000000001111001000000000000 f
b00000000000000000000000000000000 g
b00000000000000000000000000000000 h
b11111111111111111111111111111111 i
b11111111111111111111111111101110 j
b11111111111111111111011111101110 k
b11111111111100000000111111111110 l
b00000000000000000000000000010100 m
0q
1r
b00000000000000000000000000001100 u
b00000000000000000000000000001100 &!
1,!
1/!
#390
#395
0/!
#400
#405
b00000000001001111000011110010011 %
b00000000000000000000000000010100 *
b00000000000000000000000000001100 N
b00000000000000000000000000001100 O
b00010 S
b000 U
b01111 V
b0010011 W
b00000000000001111001000000100011 X
b0000000 Y
b00000 Z
b01111 [
b001 \
b00000 ]
b0100011 ^
b000000000010 _
b000000001111 `
b0100000001110 a
b001111000000000000010 b
b00000000000000000000000000000010 c
b00000000000000000000000000001111 d
b00000000000000000000100000001110 e
b00000000000001111000000000000010 f
b00000000000000000000000010110110 g
b00000000000000000000000000000000 i
b00000000000000000000000000000000 j
b00000000000000000000000000000000 k
b00000000000001111001000000000000 l
b00000000000000000000000000001000 m
0r
b00000000000000000000000000010000 u
1v
b00000000000000000000000010110100 w
b1100 x
1|
b00000000000000000000000010110100 }
b1100 !!
b00000000000000000000000000010000 &!
0,!
1/!
#410
#415
0/!
#420
#425
b11111110111001111001110011100011 %
b00000000000000000000000000010101 *
b00000000000000000000000000010000 N
b00000000000000000000000000010000 O
b00000000000000000000000011000100 Q
b1111111 R
b01110 S
b001 U
b11001 V
b1100011 W
b00000000001001111000011110010011 X
b00010 Z
b000 \
b01111 ]
b0010011 ^
b111111101110 _
b111111111001 `
b1111111111000 a
b101111001011111101110 b
b11111111111111111111111111101110 c
b11111111111111111111111111111001 d
b11111111111111111111111111111000 e
b11111111111101111001011111101110 f
b00000000000000000000000000000010 i
b00000000000000000000000000001111 j
b00000000000000000000100000001110 k
b00000000000001111000000000000010 l
b00000000000000000000000000001100 m
b00000000000000000000000010111000 n
b00000000000000000000000000010100 u
0v
b00000000000000000000000000000000 w
b0000 x
0|
b00000000000000000000000000000000 }
b0000 !!
b00000000000000000000000000010100 &!
1(!
1,!
1-!
1/!
#430
#435
0/!
#440
#445
b11111111111100000000011100010011 %
b00000000000000000000000000010110 *
b00000000000000000000000010111000 =
b00000000000000000000000000010100 N
b00000000000000000000000000010100 O
b00000000000000000000000000000000 P
b00000000000000000000000000000000 Q
b11111 S
b00000 T
b000 U
b01110 V
b0010011 W
b11111110111001111001110011100011 X
b1111111 Y
b01110 Z
b001 \
b11001 ]
b1100011 ^
b111111111111 _
b111111101110 `
b1011111101110 a
b100000000111111111110 b
b11111111111111111111111111111111 c
b11111111111111111111111111101110 d
b11111111111111111111011111101110 e
b11111111111100000000111111111110 f
b00000000000000000000000010111000 g
b00000000000000000000000011000100 h
b11111111111111111111111111101110 i
b11111111111111111111111111111001 j
b11111111111111111111111111111000 k
b11111111111101111001011111101110 l
b00000000000000000000000000010000 m
b00000000000000000000000000000000 n
1q
b00000000000000000000000000001000 u
b00000000000000000000000000001000 &!
0(!
0,!
0-!
1/!
#450
#455
0/!
#460
#465
b00000000000001111001000000100011 %
b00000000000000000000000000010111 *
b00000000000000000000000000001000 N
b00000000000000000000000000001000 O
b00000000000000000000000010111000 P
b0000000 R
b00000 S
b01111 T
b001 U
b00000 V
b0100011 W
b11111111111100000000011100010011 X
b11111 Z
b00000 [
b000 \
b01110 ]
b0010011 ^
b000000000000 _
b000000000000 `
b0000000000000 a
b001111001000000000000 b
b00000000000000000000000000000000 c
b00000000000000000000000000000000 d
b00000000000000000000000000000000 e
b00000000000001111001000000000000 f
b00000000000000000000000000000000 g
b00000000000000000000000000000000 h
b11111111111111111111111111111111 i
b11111111111111111111111111101110 j
b11111111111111111111011111101110 k
b11111111111100000000111111111110 l
b00000000000000000000000000010100 m
0q
1r
b00000000000000000000000000001100 u
b00000000000000000000000000001100 &!
1,!
1/!
#470
#475
0/!
#480
#485
b00000000001001111000011110010011 %
b00000000000000000000000000011000 *
b00000000000000000000000000001100 N
b00000000000000000000000000001100 O
b00010 S
b000 U
b01111 V
b0010011 W
b00000000000001111001000000100011 X
b0000000 Y
b00000 Z
b01111 [
b001 \
b00000 ]
b0100011 ^
b000000000010 _
b000000001111 `
b0100000001110 a
b001111000000000000010 b
b00000000000000000000000000000010 c
b00000000000000000000000000001111 d
b00000000000000000000100000001110 e
b00000000000001111000000000000010 f
b00000000000000000000000010111000 g
b00000000000000000000000000000000 i
b00000000000000000000000000000000 j
b00000000000000000000000000000000 k
b00000000000001111001000000000000 l
b00000000000000000000000000001000 m
0r
b00000000000000000000000000010000 u
1v
b00000000000000000000000010111000 w
b0011 x
1|
b00000000000000000000000010111000 }
b0011 !!
b00000000000000000000000000010000 &!
0,!
1/!
#490
#495
0/!
#500
#505
b11111110111001111001110011100011 %
b00000000000000000000000000011001 *
b00000000000000000000000000010000 N
b00000000000000000000000000010000 O
b00000000000000000000000011000100 Q
b1111111 R
b01110 S
b001 U
b11001 V
b1100011 W
b00000000001001111000011110010011 X
b00010 Z
b000 \
b01111 ]
b0010011 ^
b111111101110 _
b111111111001 `
b1111111111000 a
b101111001011111101110 b
b11111111111111111111111111101110 c
b11111111111111111111111111111001 d
b11111111111111111111111111111000 e
b11111111111101111001011111101110 f
b00000000000000000000000000000010 i
b00000000000000000000000000001111 j
b00000000000000000000100000001110 k
b00000000000001111000000000000010 l
b00000000000000000000000000001100 m
b00000000000000000000000010111010 n
b00000000000000000000000000010100 u
0v
b00000000000000000000000000000000 w
b0000 x
0|
b00000000000000000000000000000000 }
b0000 !!
b00000000000000000000000000010100 &!
1(!
1,!
1-!
1/!
#510
#515
0/!
#520
#525
b11111111111100000000011100010011 %
b00000000000000000000000000011010 *
b00000000000000000000000010111010 =
b00000000000000000000000000010100 N
b00000000000000000000000000010100 O
b00000000000000000000000000000000 P
b00000000000000000000000000000000 Q
b11111 S
b00000 T
b000 U
b01110 V
b0010011 W
b11111110111001111001110011100011 X
b1111111 Y
b01110 Z
b001 \
b11001 ]
b1100011 ^
b111111111111 _
b111111101110 `
b1011111101110 a
b100000000111111111110 b
b11111111111111111111111111111111 c
b11111111111111111111111111101110 d
b11111111111111111111011111101110 e
b11111111111100000000111111111110 f
b00000000000000000000000010111010 g
b00000000000000000000000011000100 h
b11111111111111111111111111101110 i
b11111111111111111111111111111001 j
b11111111111111111111111111111000 k
b11111111111101111001011111101110 l
b00000000000000000000000000010000 m
b00000000000000000000000000000000 n
1q
b00000000000000000000000000001000 u
b00000000000000000000000000001000 &!
0(!
0,!
0-!
1/!
#530
#535
0/!
#540
